<?xml version="1.0" encoding="UTF-8"?><svg xmlns="http://www.w3.org/2000/svg" xmlns:xlink="http://www.w3.org/1999/xlink" fill-opacity="1" color-rendering="auto" color-interpolation="auto" text-rendering="auto" stroke="black" stroke-linecap="square" width="563" stroke-miterlimit="10" shape-rendering="auto" stroke-opacity="1" fill="black" stroke-dasharray="none" font-weight="normal" stroke-width="1" height="338" font-family="'Dialog'" font-style="normal" stroke-linejoin="miter" font-size="12px" stroke-dashoffset="0" image-rendering="auto">
  <!--Generated by ySVG 2.5-->
  <defs id="genericDefs"/>
  <g>
    <defs id="defs1">
      <clipPath clipPathUnits="userSpaceOnUse" id="clipPath1">
        <path d="M0 0 L563 0 L563 338 L0 338 L0 0 Z"/>
      </clipPath>
      <clipPath clipPathUnits="userSpaceOnUse" id="clipPath2">
        <path d="M291 130 L854 130 L854 468 L291 468 L291 130 Z"/>
      </clipPath>
    </defs>
    <g fill="white" text-rendering="geometricPrecision" shape-rendering="geometricPrecision" transform="translate(-291,-130)" stroke="white">
      <rect x="291" width="563" height="338" y="130" clip-path="url(#clipPath2)" stroke="none"/>
    </g>
    <g fill="rgb(204,255,204)" text-rendering="geometricPrecision" shape-rendering="geometricPrecision" transform="matrix(1,0,0,1,-291,-130)" stroke="rgb(204,255,204)">
      <rect x="309.5" width="121" height="30" y="205" clip-path="url(#clipPath2)" stroke="none"/>
    </g>
    <g text-rendering="geometricPrecision" stroke-miterlimit="1.45" shape-rendering="geometricPrecision" font-family="sans-serif" transform="matrix(1,0,0,1,-291,-130)" stroke-linecap="butt">
      <text x="320.6377" xml:space="preserve" y="224.1543" clip-path="url(#clipPath2)" stroke="none">Trénovacia sada</text>
      <rect fill="none" x="309.5" width="121" height="30" y="205" clip-path="url(#clipPath2)"/>
    </g>
    <g fill="rgb(204,255,204)" text-rendering="geometricPrecision" shape-rendering="geometricPrecision" transform="matrix(1,0,0,1,-291,-130)" stroke="rgb(204,255,204)">
      <rect x="309.5" width="121" height="30" y="333.2" clip-path="url(#clipPath2)" stroke="none"/>
    </g>
    <g text-rendering="geometricPrecision" stroke-miterlimit="1.45" shape-rendering="geometricPrecision" font-family="sans-serif" transform="matrix(1,0,0,1,-291,-130)" stroke-linecap="butt">
      <text x="321.4287" xml:space="preserve" y="352.3543" clip-path="url(#clipPath2)" stroke="none">Testovacia sada</text>
      <rect fill="none" x="309.5" width="121" height="30" y="333.2" clip-path="url(#clipPath2)"/>
    </g>
    <g fill="rgb(204,255,255)" text-rendering="geometricPrecision" shape-rendering="geometricPrecision" transform="matrix(1,0,0,1,-291,-130)" stroke="rgb(204,255,255)">
      <rect x="523.25" width="95.25" height="30" y="205" clip-path="url(#clipPath2)" stroke="none"/>
    </g>
    <g text-rendering="geometricPrecision" stroke-miterlimit="1.45" shape-rendering="geometricPrecision" font-family="sans-serif" transform="matrix(1,0,0,1,-291,-130)" stroke-linecap="butt">
      <text x="537.1895" xml:space="preserve" y="224.1543" clip-path="url(#clipPath2)" stroke="none">Trénovanie</text>
      <rect fill="none" x="523.25" width="95.25" height="30" y="205" clip-path="url(#clipPath2)"/>
    </g>
    <g fill="rgb(204,255,255)" text-rendering="geometricPrecision" shape-rendering="geometricPrecision" transform="matrix(1,0,0,1,-291,-130)" stroke="rgb(204,255,255)">
      <rect x="523.375" width="95" height="30" y="380.2" clip-path="url(#clipPath2)" stroke="none"/>
    </g>
    <g text-rendering="geometricPrecision" stroke-miterlimit="1.45" shape-rendering="geometricPrecision" font-family="sans-serif" transform="matrix(1,0,0,1,-291,-130)" stroke-linecap="butt">
      <text x="537.2305" xml:space="preserve" y="399.3543" clip-path="url(#clipPath2)" stroke="none">Klasifikácia</text>
      <rect fill="none" x="523.375" width="95" height="30" y="380.2" clip-path="url(#clipPath2)"/>
    </g>
    <g fill="rgb(255,255,153)" text-rendering="geometricPrecision" shape-rendering="geometricPrecision" transform="matrix(1,0,0,1,-291,-130)" stroke="rgb(255,255,153)">
      <rect x="693" width="146" height="30" y="205" clip-path="url(#clipPath2)" stroke="none"/>
    </g>
    <g text-rendering="geometricPrecision" stroke-miterlimit="1.45" shape-rendering="geometricPrecision" font-family="sans-serif" transform="matrix(1,0,0,1,-291,-130)" stroke-linecap="butt">
      <text x="739.2256" xml:space="preserve" y="224.1543" clip-path="url(#clipPath2)" stroke="none">Popis NN</text>
      <rect fill="none" x="693" width="146" height="30" y="205" clip-path="url(#clipPath2)"/>
    </g>
    <g fill="rgb(204,255,204)" text-rendering="geometricPrecision" shape-rendering="geometricPrecision" transform="matrix(1,0,0,1,-291,-130)" stroke="rgb(204,255,204)">
      <rect x="309.5" width="121" height="30" y="422.2" clip-path="url(#clipPath2)" stroke="none"/>
    </g>
    <g text-rendering="geometricPrecision" stroke-miterlimit="1.45" shape-rendering="geometricPrecision" font-family="sans-serif" transform="matrix(1,0,0,1,-291,-130)" stroke-linecap="butt">
      <text x="343.2256" xml:space="preserve" y="441.3543" clip-path="url(#clipPath2)" stroke="none">Popis NN</text>
      <rect fill="none" x="309.5" width="121" height="30" y="422.2" clip-path="url(#clipPath2)"/>
    </g>
    <g fill="rgb(255,255,153)" text-rendering="geometricPrecision" shape-rendering="geometricPrecision" transform="matrix(1,0,0,1,-291,-130)" stroke="rgb(255,255,153)">
      <rect x="693" width="146" height="30" y="380.2" clip-path="url(#clipPath2)" stroke="none"/>
    </g>
    <g text-rendering="geometricPrecision" stroke-miterlimit="1.45" shape-rendering="geometricPrecision" font-family="sans-serif" transform="matrix(1,0,0,1,-291,-130)" stroke-linecap="butt">
      <text x="703.7998" xml:space="preserve" y="399.3543" clip-path="url(#clipPath2)" stroke="none">Výsledok klasifikácie</text>
      <rect fill="none" x="693" width="146" height="30" y="380.2" clip-path="url(#clipPath2)"/>
      <text x="308.7021" xml:space="preserve" font-size="20px" y="166.9238" clip-path="url(#clipPath2)" stroke="none">Trénovací mod</text>
      <text x="308.8287" xml:space="preserve" font-size="20px" y="316.9644" clip-path="url(#clipPath2)" stroke="none">Klasifikačný mod</text>
      <path fill="none" d="M430.5 220 L515.25 220" clip-path="url(#clipPath2)"/>
      <path d="M523.25 220 L511.25 215 L514.25 220 L511.25 225 Z" clip-path="url(#clipPath2)" stroke="none"/>
      <path fill="none" d="M430.5 348.2 L484.2419 348.2 L484.2419 395.2 L515.375 395.2" clip-path="url(#clipPath2)"/>
      <path d="M523.375 395.2 L511.375 390.2 L514.375 395.2 L511.375 400.2 Z" clip-path="url(#clipPath2)" stroke="none"/>
      <path fill="none" d="M618.5 220 L685 220" clip-path="url(#clipPath2)"/>
      <path d="M693 220 L681 215 L684 220 L681 225 Z" clip-path="url(#clipPath2)" stroke="none"/>
      <path fill="none" d="M430.5 437.2 L484 437.2 L484 395.2 L515.375 395.2" clip-path="url(#clipPath2)"/>
      <path d="M523.375 395.2 L511.375 390.2 L514.375 395.2 L511.375 400.2 Z" clip-path="url(#clipPath2)" stroke="none"/>
      <path fill="none" d="M618.375 395.2 L685 395.2" clip-path="url(#clipPath2)"/>
      <path d="M693 395.2 L681 390.2 L684 395.2 L681 400.2 Z" clip-path="url(#clipPath2)" stroke="none"/>
    </g>
  </g>
</svg>
