\relax 
\@writefile{toc}{\contentsline {section}{\numberline {1}N\IeC {\'a}vrh a implement\IeC {\'a}cia klasifika\IeC {\v c}n\IeC {\'e}ho n\IeC {\'a}stroja}{1}}
\newlabel{alg:train}{{1}{2}}
\@writefile{loa}{\contentsline {algocf}{\numberline {1}{\ignorespaces Algoritmus backpropagation v maticovej forme. V prvej f\IeC {\'a}ze je aktu\IeC {\'a}lny v\IeC {\'y}stup siete porovnan\IeC {\'y} s o\IeC {\v c}ak\IeC {\'a}van\IeC {\'y}m v\IeC {\'y}stupom a ich rozdiel je pou\IeC {\v z}it\IeC {\'y} na v\IeC {\'y}po\IeC {\v c}et delty v\IeC {\'y}stupnej vrstvy. N\IeC {\'a}sledne je chyba propagovan\IeC {\'a} k predo\IeC {\v s}l\IeC {\'y}m vrstv\IeC {\'a}m a vo fin\IeC {\'a}lnom kroku doch\IeC {\'a}dza k \IeC {\'u}prave v\IeC {\'a}h. Symbol $\odot $ zna\IeC {\v c}\IeC {\'\i } s\IeC {\'u}\IeC {\v c}in dvoch vektorov po elementoch ($\mathaccent "017E\relax {x} \odot \mathaccent "017E\relax {y} = (x_0 y_0,x_1 y_1,\dots  ,x_n y_n$)).}}{2}}
\newlabel{alg:classify}{{2}{2}}
\@writefile{loa}{\contentsline {algocf}{\numberline {2}{\ignorespaces Algoritmus klasifik\IeC {\'a}cie v maticovom z\IeC {\'a}pise. Vektor $\mathaccent "017E\relax {b}_l$ obsahuje v\IeC {\'a}hy nult\IeC {\'y}ch vstupov jednotliv\IeC {\'y}ch neur\IeC {\'o}nov. Ke\IeC {\v d}\IeC {\v z}e nult\IeC {\'e} vstupy s\IeC {\'u} implicitne nastaven\IeC {\'e} na hodnotu 1 pripo\IeC {\v c}\IeC {\'\i }tanie vektora $\mathaccent "017E\relax {b}_l$ je ekvivalentn\IeC {\'e} so situ\IeC {\'a}ciou kedy by bol s\IeC {\'u}\IeC {\v c}as\IeC {\v t}ou matice $W_{l+1}$ a vektor $\mathaccent "017E\relax {y}_l$ by obsahoval v prvom riadku implicitn\IeC {\'u} hodnotu 1. Pre uveden\IeC {\'u} mo\IeC {\v z}nos\IeC {\v t} som sa rozhodol aby som predi\IeC {\v s}iel nutnosti roz\IeC {\v s}irova\IeC {\v t} vstupn\IeC {\'y} vektor.}}{2}}
\@writefile{toc}{\contentsline {section}{\numberline {2}Pou\IeC {\v z}it\IeC {\'e} d\IeC {\'a}ta a ich predspracovanie}{2}}
\@writefile{toc}{\contentsline {section}{\numberline {3}Ovl\IeC {\'a}danie programu a form\IeC {\'a}t vstupn\IeC {\'y}ch d\IeC {\'a}t}{3}}
\newlabel{sec:ovladanie}{{3}{3}}
